{
  "name": "Untitled application 1",
  "isPublic": false,
  "viewMode": false,
  "appIsExample": false,
  "unreadCommentThreads": 0,
  "color": "#FFEBFB",
  "icon": "arrow-up",
  "createdAt": {
    "seconds": 1635416256,
    "nanos": 571000000
  },
  "deleted": false,
  "policies": [],
  "userPermissions": [
    "canComment:applications",
    "manage:applications",
    "export:applications",
    "read:applications",
    "publish:applications",
    "makePublic:applications"
  ]
}